999c1921cc8bbc917ac8473847a6cb10cff82b84c7d7ce1f41
6f1ff71c4c87ce43f991bb06166b1421090c63253cacbf0cbd
3a5fff4c35383c38007a2a2e092b8cb85c30f201027ed98839
49b06e15a62c1b385ad0477cc0ad768832007938dc43008ff5
0eaefc63241ebb813cc0c1cae8d616f76bc349858421e84fcd
3c18ba66599737d099e7a9f112858461b105bef36b6f64a7b4
27c4d6a42026e7f77393abc093ceba116c10e2919c68c7d962
2dc5ada3257a4431cc4f1865967f7535abc3bca7f9c34e9b53
f7c0fd0f8e2ba78cbee258dfb1d0e1ba5ccac627701278d380
3ad4c34351eb36e4b5b5b392d9b1c6a09efecb7f528a0eea01
b1e16aff769868950398ebd6c9501bfb4f0ea5b4bb4fe785f0
f64da85d8526668b55fc62db38f342e653a480757801d772ac
98b10d4c06aef482ddf67938f3039fd4055d220697b7ff719d
2cb0ab803c9cfb06a506218777bf73a53723441ece1314292f
08c004a5531f6f9af05f77c8796f85a7ead11fcf0767a71943
ecf5d3eee4f5be340074fb7bda673649fc1d3cce8ddb808679
c7e4f0ce7eed6a94c496f21370fc6537d3c42067cb610bba37
974cd38a0e2c082cfaf18e0d708d2af286b53111c179bf249f
3b0b847adf2b74907e920d44c42b11883e6a36b9f646ec02cf
a497b3e455cbedafa8d485cc85d7286e80efa4e3d21d1481a7
dca7748c484c9896e7616c3dc698779543452f69928572ac38
8a31576a723a32a6ac5d48a04ac15cd909d263df24f777280b
c9b4e8c7df6e1c26979fc594cac2f81175871bd68759ed5723
eb3adc9f117a698b4d66b01f5613a1aa5f5f113bf4ace3ba96
2e064118db0c3c995271e66ebc7f5431bfe1fd45434ef4067a
7075d3228a7f9367c2311d583e9a91d21c4bea2f5765c89ffb
2523e4a3f6739e41cde4ec2fed3772092a664c188f4c39b8cb
17ea5fb3c7aff04c1a93c86ea3d44d28fca3c775ce8bafb2ed
3ddb07140773a428eb920410d1ca1caf82cbc5d3c26e2e61e3
92819eabee7f65c13e4c1337ea1e09387ea11b576df6be232c
0bf3d1b668ff7a5cc9f4e3a7d6b9e8dd0dcbef2348c1fb2603
dd5ae281693296ec2ba1686ec363b629ffa1a7d72c48c6bbf2
ddd465f589e93781c648f6c1d13916ab46920d063f0bb450b6
1b8b19c277c28cfdb5f3ee0bd886b096ac63a4127951e2f86b
ed16f43d75259f9a282987c218bcd370f9a9e077a380720732
5cb48e759aa8a6223a9d4a969dfd116970d1e2693acda86849
20a448c6c567f3fec88b9193919b84896aa02dea35a23d7f59
b26f3630957cd805dc24bc64df439d1ec18cedae27996dcee2
9d1993b213cce1761d6a6945e5e262b801cf0a95234275d68a
7c98968c8385eeb952bf4b2adc94f505bae84e915679f2b3fe
